{
  "streams": [
    {
      "title": "My Stream",
      "description": "A great stream",
      "id": 1
    },
    {
      "title": "Other Stream",
      "description": "Here's some stream",
      "id": 2
    },
    {
      "title": "I Created This Stream",
      "description": "This was made by me!",
      "userId": "100482746169114467805",
      "id": 3
    },
    {
      "title": "Programmatic Navigation",
      "description": "You can see this on the form page!!",
      "userId": "100482746169114467805",
      "id": 4
    },
    {
      "title": "Hello world!",
      "description": "Este es un stream de programación",
      "userId": "100482746169114467805",
      "id": 5
    }
  ]
}